ORG 2H
MOV R1, #22H
MOV R2, #34H
MOV R6, #26H
ADD A, #25D
ADD A, R6
MOV 22H, 01H
ADD A, 22H
ADD A, @R1
ADDC A, #11111100B
ADDC A, R1
ADDC A, 22H
ADDC A, @R1
SUBB A, #100D
SUBB A, R2
MOV 34H, #10H
SUBB A, 34H
SUBB A, @R1
INC A
INC R6
INC @R1
INC 22H
DEC A
DEC R6
DEC @R1
DEC 22H
MUL AB
DIV AB

CLR C
SETB C
SETB 12H
CLR 12H
CPL 12H
ANL C, 12H
ANL C, /12H
ORL C, 12H
ORL C, /12H
CPL C
MOV C, 12H
MOV 12H, C

MOV A, #45D
MOV A, 34H
MOV A, R6
MOV A, @R1
MOV R4, A
MOV R5, 34H
MOV R7, #ABH
MOV 7AH, 34H
MOV 7EH, #5EH
MOV 30H, R4
MOV 40H, @R1
MOV @R1, A
MOV @R1, 7EH
MOV @R1, #89H
MOV DPTR, #66H
MOVX @R0, A
XCH A, R5
XCH A, 34H
XCH A, @R1
XCHD A, @R1

ANL A, R2
ANL A, 22H
ANL A, #F0H
ANL A, @R1
ANL 33H, A
ANL 33H, #2H
ORL A, R4
ORL A, 49H
ORL A, #9H
ORL A, @R1
ORL 55H, A
ORL 55H, #AH
XRL A, R4
XRL A, 49H
XRL A, #9H
XRL A, @R1
XRL 55H, A
XRL 55H, #AH
CLR A
CPL A
SWAP A
RL A
CLR C
RLC A
RR A
RRC A

END